xsim_6440.backup.log
#-----------------------------------------------------------
# xsim v2018.3 (64-bit)
# SW Build 2405991 on Thu Dec  6 23:38:27 MST 2018
# IP Build 2404404 on Fri Dec  7 01:43:56 MST 2018
# Start of session at: Sun Oct 20 02:54:05 2019
# Process ID: 6440
# Current directory: C:/Users/tkodera/Desktop/CPU/Fpu
# Command line: xsim.exe -mode tcl -source {xsim.dir/finv_testbench.sim/xsim_script.tcl}
# Log file: C:/Users/tkodera/Desktop/CPU/Fpu/xsim.log
# Journal file: C:/Users/tkodera/Desktop/CPU/Fpu\xsim.jou
#-----------------------------------------------------------
source xsim.dir/finv_testbench.sim/xsim_script.tcl
# xsim {finv_testbench.sim} -autoloadwcfg -runall
Vivado Simulator 2018.3
Time resolution is 100 ps
run -all
start of checking module fadd
difference message format
x1 = [input 1(bit)], [exponent 1(decimal)]
x2 = [input 2(bit)], [exponent 2(decimal)]
ref. : result(float) sign(bit),exponent(decimal),mantissa(bit) overflow(bit)
fdiv : result(float) sign(bit),exponent(decimal),mantissa(bit) overflow(bit)
x1 = 0 11000111 01000011111100111100011, 199
00011011 00101111 00000011 00001110
00011011 01000110 10011110 11000110
00011011 01001010 00111100 00000100
00011011 01001010 01001101 00101001
00011011 01001010 01001101 00101011
00011011 01001010 01001101 00101011
1.673398e-22 0  54 10010100100110100101010 0
1.673398e-22 0  54 10010100100110100101011 carry(z) over(z) under(z)

x1 = 0 10110001 01110000000100100001011, 177
00100110 00100011 11111011 01111010
00100110 00110000 11110000 11011110
00100110 00110010 00001011 10111011
00100110 00110010 00001101 10000011
00100110 00110010 00001101 10000011
00100110 00110010 00001101 10000011
6.177447e-16 0  76 01100100000110110000011 0
6.177447e-16 0  76 01100100000110110000011 carry(z) over(z) under(z)

x1 = 1 01101110 01010100001101111010100, 110
11000111 10101010 11110010 00010110
11000111 10111110 00110000 01010101
11000111 11000000 10011001 01001101
11000111 11000000 10100001 00111000
11000111 11000000 10100001 00111000
11000111 11000000 10100001 00111000
-9.862644e+04 1 143 10000001010000100111000 0
-9.862644e+04 1 143 10000001010000100111000 carry(z) over(z) under(z)

x1 = 0 01001100 00111000010111111110110,  76
01011000 10110001 11101000 00000101
01011000 11001100 11110011 01111000
01011000 11010001 10101111 11110010
01011000 11010001 11001100 10011101
01011000 11010001 11001100 10100000
01011000 11010001 11001100 10100000
1.845414e+15 0 177 10100011100110010100001 0
1.845414e+15 0 177 10100011100110010100000 carry(z) over(z) under(z)

x1 = 1 00010011 11000010011000111000101,  19
11110101 00001111 01100111 00011110
11110101 00010001 01111010 10110101
11110101 00010001 10000010 10000011
11110101 00010001 10000010 10000100
11110101 01011010 01000011 11000110
11110100 11011010 01000011 11000110
-1.844556e+32 1 234 00100011000001010000100 0
-1.383417e+32 1 233 10110100100001111000110 carry(z) over(z) under(z)

x1 = 0 01001001 11111010110001011000001,  73
01011010 00000001 01001110 10100000
01011010 00000001 01010010 00010011
01011010 00000001 01010010 00010011
01011010 00000001 01010010 00010011
01011010 00000001 01010010 00010011
01011010 00000001 01010010 00010011
9.100129e+15 0 180 00000010101001000010011 0
9.100128e+15 0 180 00000010101001000010011 carry(z) over(z) under(z)

x1 = 0 11101011 00101101111100001000011, 235
00001001 00110100 10000011 11011110
00001001 01010010 11100110 01111100
00001001 01011000 11100000 00110111
00001001 01011001 00001100 11001001
00001001 01011001 00001100 11010001
00001001 01011001 00001100 11010001
2.612645e-33 0  18 10110010000110011010010 0
2.612645e-33 0  18 10110010000110011010001 carry(z) over(z) under(z)

x1 = 0 11011011 00000110010101110101000, 219
00010001 00111110 01101010 00101100
00010001 01101011 10110000 01111001
00010001 01111001 00000011 10001000
00010001 01111001 11001111 01000101
00010001 01111001 11001111 11101101
00010001 01111001 11001111 11101101
1.970671e-28 0  34 11110011100111111101101 0
1.970671e-28 0  34 11110011100111111101101 carry(z) over(z) under(z)

x1 = 0 11111011 01101010110101111001101, 251
00000001 00100101 01001010 00011010
00000001 00110011 01010001 01001001
00000001 00110100 10011011 11101110
00000001 00110100 10011110 01010100
00000001 00110100 10011110 01010100
00000001 00110100 10011110 01010100
3.317437e-38 0   2 01101001001111001010100 0
3.317437e-38 0   2 01101001001111001010100 carry(z) over(z) under(z)

x1 = 1 01011001 10000010001010000010111,  89
11010010 00011111 01110101 11110100
11010010 00101001 00011000 00010001
11010010 00101001 10110110 00001100
11010010 00101001 10110110 10100000
11010010 00101001 10110110 10100000
11010010 00101001 10110110 10100000
-1.822283e+11 1 164 01010011011011010100000 0
-1.822284e+11 1 164 01010011011011010100000 carry(z) over(z) under(z)

x1 = 1 00100111 00111110101101110011111,  39
11101011 00110000 01010010 00110000
11101011 01001001 01110010 11110010
11101011 01001101 10001010 01010110
11101011 01001101 10100000 00001100
11101011 01001101 10100000 00001110
11101011 01001101 10100000 00001110
-2.485856e+26 1 214 10011011010000000001110 0
-2.485856e+26 1 214 10011011010000000001110 carry(z) over(z) under(z)

x1 = 1 00001111 00101101001110110010010,  15
11110111 00110100 10110001 00110111
11110111 01010011 01010000 00010011
11110111 01011001 01100001 10010100
11110111 01011001 10001111 01111001
11110111 01011001 10001111 10000011
11110111 10100011 00101011 10100010
-4.412653e+33 1 238 10110011000111110000011 0
-6.618979e+33 1 239 01000110010101110100010 carry(z) over(z) under(z)

x1 = 0 10100011 01111100111011011011000, 163
00101101 00100000 11000100 10010100
00101101 00101011 01001101 11001100
00101101 00101100 00001010 00100101
00101101 00101100 00001010 11110100
00101101 00101100 00001010 11110100
00101101 00101100 00001010 11110100
9.779501e-12 0  90 01011000000101011110101 0
9.779500e-12 0  90 01011000000101011110100 carry(z) over(z) under(z)

x1 = 1 00010010 01101100101001111100010,  18
11110101 10100100 11010110 00001111
11110101 10110010 01111100 11011001
11110101 10110011 10110110 01000010
11110101 10110011 10111000 01101011
11110101 10110011 10111000 01101011
11110101 10110011 10111000 01101011
-4.556453e+32 1 235 01100111011100001101100 0
-4.556453e+32 1 235 01100111011100001101011 carry(z) over(z) under(z)

x1 = 0 11101010 00110011100100100111010, 234
00001001 10110011 00011011 01100011
00001001 11001111 10101000 11111010
00001001 11010100 11110000 00001001
00001001 11010101 00010011 00111110
00001001 11010101 00010011 01000101
00001001 11010101 00010011 01000011
5.129600e-33 0  19 10101010001001101000100 0
5.129600e-33 0  19 10101010001001101000011 carry(z) over(z) under(z)

x1 = 0 10011110 11100111110001010100101, 158
00101111 10000110 00001110 10101110
00101111 10000110 01011011 10001001
00101111 10000110 01011011 10110101
00101111 10000110 01011011 10110101
00101111 10000110 01011011 10110101
00101111 10000110 01011011 10110101
2.443962e-10 0  95 00001100101101110110101 0
2.443962e-10 0  95 00001100101101110110101 carry(z) over(z) under(z)

x1 = 1 01101011 11101110110011111111001, 107
11001001 00000100 01001100 00000100
11001001 00000100 01110010 00101110
11001001 00000100 01110010 00111001
11001001 01000110 10101011 01010110
11001000 11000110 10101011 01010110
11001000 11111000 01010110 00101100
-5.424996e+05 1 146 00001000111001000111001 0
-5.085934e+05 1 145 11110000101011000101100 carry(z) over(z) under(z)

x1 = 0 00010001 01110010010010011011001,  17
01110110 00100011 01101101 10010100
01110110 00101111 11110010 10101011
01110110 00110000 11111011 00000100
01110110 00110000 11111100 10010100
01110110 00110000 11111100 10010100
01110110 00110000 11111100 10010100
8.974288e+32 0 236 01100001111110010010011 0
8.974288e+32 0 236 01100001111110010010100 carry(z) over(z) under(z)

x1 = 0 10101110 00010101000000000110111, 174
00100111 10111010 10111111 11100100
00100111 11100010 00010111 01000111
00100111 11101100 00011111 11101010
00100111 11101100 10010110 11110111
00100111 11101100 10010111 00110010
00100111 11101100 10010111 00110010
6.566709e-15 0  79 11011001001011100110011 0
6.566708e-15 0  79 11011001001011100110010 carry(z) over(z) under(z)

x1 = 0 00001111 01101011101111011010001,  15
01110111 00100101 00010000 10011000
01110111 00110010 11100111 11010001
01110111 00110100 00101001 11010011
01110111 00110100 00101100 00011010
01110111 00110100 00101100 00011010
01110111 00110100 00101100 00011010
3.654328e+33 0 238 01101000010110000011010 0
3.654328e+33 0 238 01101000010110000011010 carry(z) over(z) under(z)

x1 = 0 00100011 11011110111100010111011,  35
01101101 00001000 01000011 10100010
01101101 00001000 11010101 00001100
01101101 00001000 11010101 10101000
01101101 01001101 01000000 01111100
01101100 11001101 01000000 01111100
01101101 00000000 01001000 01001110
2.646766e+27 0 218 00010001101010110101000 0
2.481343e+27 0 218 00000000100100001001110 carry(z) over(z) under(z)

x1 = 0 10011000 01001000100100101110010, 152
00110010 10101101 11011011 01000111
00110010 11000100 00101011 10011110
00110010 11000111 01100110 11011111
00110010 11000111 01110100 10111001
00110010 11000111 01110100 10111001
00110010 11000111 01110100 10111001
2.321973e-08 0 101 10001110111010010111010 0
2.321973e-08 0 101 10001110111010010111001 carry(z) over(z) under(z)

x1 = 0 10101110 01010011100000101110111, 174
00100111 10101011 00011111 01000100
00100111 10111110 10001011 00111000
00100111 11000000 11111111 10001111
00100111 11000001 00000111 11000010
00100111 11000001 00000111 11000010
00100111 11000001 00000111 11000010
5.357667e-15 0  79 10000010000011111000011 0
5.357667e-15 0  79 10000010000011111000010 carry(z) over(z) under(z)

x1 = 0 10001111 11001101110000010110100, 143
00110111 00001100 10001111 10100110
00110111 00001101 11101010 00101110
00110111 00001101 11101101 10001101
00110111 00001101 11101101 10001101
00110111 00001101 11101101 10001101
00110111 00001101 11101101 10001101
8.459564e-06 0 110 00011011110110110001101 0
8.459564e-06 0 110 00011011110110110001101 carry(z) over(z) under(z)

x1 = 0 10101001 10111010110111001001011, 169
00101010 00010001 01001000 11011010
00101010 00010011 11101111 00001110
00101010 00010011 11111011 10100101
00101010 00010011 11111011 10100110
00101010 01011101 11111001 01111001
00101001 11011101 11111001 01111001
1.314353e-13 0  84 00100111111101110100110 0
9.857648e-14 0  83 10111011111100101111001 carry(z) over(z) under(z)

x1 = 0 01011100 01101000100000110101110,  92
01010000 10100101 11011111 00101001
01010000 10110100 01100100 01101011
01010000 10110101 11000110 01001111
01010000 10110101 11001001 00001101
01010000 10110101 11001001 00001100
01010000 10110101 11001001 00001100
2.439882e+10 0 161 01101011100100100001100 0
2.439882e+10 0 161 01101011100100100001100 carry(z) over(z) under(z)

x1 = 0 10011111 00111001011111110000110, 159
00101111 00110001 10100000 00111101
00101111 01001100 01010011 01010011
00101111 01010000 11110001 00101000
00101111 01010001 00001100 01110110
00101111 01010001 00001100 01111001
00101111 01010001 00001100 01111001
1.901287e-10 0  94 10100010000110001111010 0
1.901287e-10 0  94 10100010000110001111001 carry(z) over(z) under(z)

x1 = 0 11001101 10011001110011100000111, 205
00011000 00011001 10001100 01111100
00011000 00011111 10101010 10001010
00011000 00011111 11101011 01101011
00011000 00011111 11101011 10000101
00011000 01101111 11100001 01001000
00010111 11101111 11100001 01001000
2.066918e-24 0  48 00111111110101110000101 0
1.550188e-24 0  47 11011111110000101001000 carry(z) over(z) under(z)

x1 = 0 11110100 10110001000101100100000, 244
00000100 10010011 10111010 01110000
00000100 10010111 00111100 11010010
00000100 10010111 01010010 10101011
00000100 10010111 01010010 10101111
00000100 10010111 01010010 10101111
00000100 10010111 01010010 10101111
3.557586e-36 0   9 00101110101001010101110 0
3.557586e-36 0   9 00101110101001010101111 carry(z) over(z) under(z)

x1 = 1 01001101 10001101000000011111101,  77
11011000 00011100 10111111 10000010
11011000 00100100 10100111 10100101
11011000 00100101 00010010 11100101
11011000 00100101 00010011 00101011
11011000 01110111 10011100 11000000
11010111 11110111 10011100 11000000
-7.260070e+14 1 176 01001010001001100101011 0
-5.445052e+14 1 175 11101111001110011000000 carry(z) over(z) under(z)

x1 = 0 01011101 01100111100011110111011,  93
01010000 00100110 00011100 00100010
01010000 00110100 11010101 10110011
01010000 00110110 01000001 01111010
01010000 00110110 01000100 01011100
01010000 00110110 01000100 01011011
01010000 10001000 10110011 01000100
1.223173e+10 0 160 01101100100010001011011 0
1.834760e+10 0 161 00010001011001101000100 carry(z) over(z) under(z)

x1 = 0 10011110 01101011111100101101100, 158
00101111 10100101 00000011 01001010
00101111 10110010 11001111 01111000
00101111 10110100 00001111 10000010
00101111 10110100 00010001 11000011
00101111 10110100 00010001 11000011
00101111 10110100 00010001 11000011
3.275443e-10 0  95 01101000001000111000011 0
3.275443e-10 0  95 01101000001000111000011 carry(z) over(z) under(z)

x1 = 0 10101001 11110101100001010101011, 169
00101010 00000010 10011110 10101010
00101010 00000010 10101100 10101100
00101010 00000010 10101100 10101110
00101010 00000010 10101100 10101110
00101010 00000010 10101100 10101110
00101010 00000010 10101100 10101110
1.160623e-13 0  84 00000101010110010101110 0
1.160623e-13 0  84 00000101010110010101110 carry(z) over(z) under(z)

x1 = 0 11111100 10100001000011101000001, 252
00000000 10010111 10111100 01100000
00000000 10011100 11110100 00011001
00000000 10011101 00100011 10011100
00000000 10011101 00100011 10101011
00000000 10011101 00100011 10101010
00000000 11101011 10110101 01111111
1.443097e-38 0   1 00111010010001110101010 0
2.164645e-38 0   1 11010111011010101111111 carry(z) over(z) under(z)

x1 = 1 01101100 00000101110000001110011, 108
11001000 10111110 10001111 11000110
11001000 11101100 00010101 10101110
11001000 11111001 10001110 10111011
11001000 11111010 01011110 11001100
11001000 11111010 01011111 01111010
11001001 00111011 11000111 10011100
-5.127638e+05 1 145 11110100101111101111010 0
-7.691458e+05 1 146 01110111100011110011100 carry(z) over(z) under(z)

x1 = 0 10011110 10100110100110111001100, 158
00101111 10010110 01011001 00011010
00101111 10011010 11101110 01011111
00101111 10011011 00010011 00111001
00101111 10011011 00010011 01000011
00101111 10011011 00010011 01000010
00101111 11101000 10011100 11100011
2.820802e-10 0  95 00110110001001101000010 0
4.231203e-10 0  95 11010001001110011100011 carry(z) over(z) under(z)

x1 = 0 01001010 00101110000100000111110,  74
01011001 10110100 01111011 11100001
01011001 11010010 11010011 11100111
01011001 11011000 11001001 01111010
01011001 11011000 11110101 11010001
01011001 11011000 11110101 11011011
01011001 11011000 11110101 11011011
7.633614e+15 0 179 10110001111010111011010 0
7.633614e+15 0 179 10110001111010111011011 carry(z) over(z) under(z)

x1 = 0 11001001 01101101010100000101110, 201
00011010 00100100 10101011 11101001
00011010 00110010 00110000 00010011
00011010 00110011 01100011 01100101
00011010 00110011 01100101 01111010
00011010 00110011 01100101 01111010
00011010 00110011 01100101 01111010
3.709831e-23 0  52 01100110110010101111011 0
3.709830e-23 0  52 01100110110010101111010 carry(z) over(z) under(z)

x1 = 1 00111101 00010010100011100111000,  61
11100000 00111011 01011100 01100100
11100000 01100011 10101000 00011111
11100000 01101110 00101111 11100011
11100000 01101110 10110010 01011001
11100000 01101110 10110010 10100000
11100000 01101110 10110010 10100000
-6.879995e+19 1 192 11011101011001010100001 0
-6.879994e+19 1 192 11011101011001010100000 carry(z) over(z) under(z)

x1 = 0 11110100 00100011100101011101010, 244
00000100 10110111 00011010 10001011
00000100 11011001 00001001 10110111
00000100 11100000 01111110 00010010
00000100 11100000 11000001 11011100
00000100 11100000 11000001 11110001
00000101 00101000 10010001 01110101
5.284025e-36 0   9 11000001100000111110001 0
7.926038e-36 0  10 01010001001000101110101 carry(z) over(z) under(z)

x1 = 0 11000110 00001110010111101110000, 198
00011011 10111100 01101000 01001000
00011011 11100110 01011110 10010101
00011011 11110001 11001011 11111011
00011011 11110010 01100100 01001001
00011011 11110010 01100100 10101010
00011011 11110010 01100100 10101010
4.010059e-22 0  55 11100100110010010101010 0
4.010059e-22 0  55 11100100110010010101010 carry(z) over(z) under(z)

x1 = 0 10101001 00011000010011110101011, 169
00101010 00111001 11101100 00101010
00101010 01011111 11111110 10100001
00101010 01101001 01100011 00100100
00101010 01101001 11001100 00110010
00101010 01101001 11001100 01100001
00101010 01101001 11001100 01100001
2.076547e-13 0  84 11010011100110001100010 0
2.076547e-13 0  84 11010011100110001100001 carry(z) over(z) under(z)

x1 = 0 10010010 11001010001100010110110, 146
00110101 10001101 01110011 10100101
00110101 10001111 00000011 10010011
00110101 10001111 00001000 00001011
00110101 10001111 00001000 00001011
00110101 10001111 00001000 00001011
00110101 10001111 00001000 00001011
1.065667e-06 0 107 00011110000100000001011 0
1.065667e-06 0 107 00011110000100000001011 carry(z) over(z) under(z)

x1 = 0 00010000 00111100011011110101110,  16
01110110 10110000 11100100 00101001
01110110 11001010 10110010 11101101
01110110 11001111 00000011 01110100
01110110 11001111 00011011 01110110
01110110 11001111 00011011 01111001
01110110 11001111 00011011 01111001
2.100318e+33 0 237 10011110001101101111000 0
2.100318e+33 0 237 10011110001101101111001 carry(z) over(z) under(z)

x1 = 0 01110010 10000101100111111011001, 114
01000101 10011110 10011000 00010100
01000101 10100111 10100111 10000010
01000101 10101000 00110011 10010100
01000101 10101000 00110100 00001010
01000101 10101000 00110100 00001010
01000101 10101000 00110100 00001010
5.382505e+03 0 139 01010000011010000001010 0
5.382505e+03 0 139 01010000011010000001010 carry(z) over(z) under(z)

x1 = 0 11001111 11011100101111111101110, 207
00010111 00001000 11010000 00001001
00010111 00001001 01110110 00001110
00010111 00001001 01110110 11011000
00010111 00001001 01110110 11011000
00010111 00001001 01110110 11011000
00010111 00001001 01110110 11011000
4.441709e-25 0  46 00010010111011011011000 0
4.441709e-25 0  46 00010010111011011011000 carry(z) over(z) under(z)

x1 = 0 00000100 01100000000001010011000,   4
01111100 10100111 11111110 10110100
01111100 10111000 01100101 10000011
01111100 10111010 00100111 01111001
01111100 10111010 00101011 11001101
01111101 00001011 10100000 11011010
01111100 10001011 10100000 11011010
7.733245e+36 0 249 01110100010101111001101 0
5.799934e+36 0 249 00010111010000011011010 carry(z) over(z) under(z)

x1 = 0 00111000 10010011111111101001001,  56
01100010 10011011 00000000 01011100
01100010 10100001 11100110 00011010
01100010 10100010 00111000 00101100
01100010 10100010 00111000 01010110
01100010 11110011 01010100 10000001
01100010 01110011 01010100 10000001
1.496216e+21 0 197 01000100011100001010110 0
1.122162e+21 0 196 11100110101010010000001 carry(z) over(z) under(z)

x1 = 1 01111000 11110101000011110011001, 120
11000010 10000010 10111100 00110100
11000010 10000010 11001011 01111100
11000010 10000010 11001011 01111110
11000010 10000010 11001011 01111101
11000010 10000010 11001011 01111101
11000010 10000010 11001011 01111101
-6.539744e+01 1 133 00000101100101101111101 0
-6.539744e+01 1 133 00000101100101101111101 carry(z) over(z) under(z)

x1 = 0 10010111 00101010001101101001110, 151
00110011 00110101 01110010 01011001
00110011 01010101 00010100 11110101
00110011 01011011 10001111 00100001
00110011 01011011 11000011 00010000
00110011 01011011 11000011 00011100
00110011 10100100 11010010 01010101
5.116736e-08 0 102 10110111100001100011100 0
7.675104e-08 0 103 01001001101001001010101 carry(z) over(z) under(z)

x1 = 1 01001000 11010000011011011111000,  72
11011010 10001011 11100100 10000100
11011010 10001101 00011001 10101010
11011010 10001101 00011100 01011100
11011010 10001101 00011100 01011100
11011010 10001101 00011100 01011100
11011010 10001101 00011100 01011100
-1.985958e+16 1 181 00011010001110001011100 0
-1.985958e+16 1 181 00011010001110001011100 carry(z) over(z) under(z)

x1 = 0 11101011 01111010101011101110010, 235
00001001 00100001 01010100 01000111
00001001 00101100 01000100 01110000
00001001 00101101 00001111 00101010
00001001 00101101 00010000 00011001
00001001 10000001 11001100 00010011
00001001 00000001 11001100 00010011
2.083169e-33 0  18 01011010001000000011001 0
1.562377e-33 0  18 00000011100110000010011 carry(z) over(z) under(z)

x1 = 0 01100111 00000110111101100111100, 103
01001011 00111110 01000010 01100010
01001011 01101011 01000101 10100000
01001011 01111000 01110000 11011001
01001011 01111001 00111000 00011001
01001011 01111001 00111000 10111011
01001011 01111001 00111000 10111011
1.633299e+07 0 150 11110010011100010111010 0
1.633299e+07 0 150 11110010011100010111011 carry(z) over(z) under(z)

x1 = 0 01001101 00110000011100110010000,  77
01011000 00110011 11100011 00111000
01011000 01010001 01110010 10100100
01011000 01010111 00011010 10000010
01011000 01010111 01000010 10101010
01011000 01010111 01000010 10110001
01011000 01010111 01000010 10110001
9.467257e+14 0 176 10101110100001010110001 0
9.467257e+14 0 176 10101110100001010110001 carry(z) over(z) under(z)

x1 = 1 00100100 00001110101011010111100,  36
11101100 10111100 01010100 10100010
11101100 11100110 00101011 01001011
11101100 11110001 10000111 01010000
11101100 11110010 00011101 11101010
11101100 11110010 00011110 01001001
11101100 11110010 00011110 01001001
-2.341624e+27 1 217 11100100001111001001000 0
-2.341625e+27 1 217 11100100001111001001001 carry(z) over(z) under(z)

x1 = 0 11011111 11111100000001011010101, 223
00001111 00000000 11111110 10010110
00001111 00000001 00000000 10010100
00001111 00000001 00000000 10010100
00001111 00000001 00000000 10010100
00001111 00000001 00000000 10010100
00001111 00000001 00000000 10010100
6.360302e-30 0  30 00000010000000010010100 0
6.360302e-30 0  30 00000010000000010010100 carry(z) over(z) under(z)

x1 = 0 11100100 01011010101010011011111, 228
00001100 10101001 01010101 10010000
00001100 10111010 11111110 00001011
00001100 10111101 00000110 10011000
00001100 10111101 00001100 01010001
00001100 10111101 00001100 01010001
00001100 10111101 00001100 01010001
2.912748e-31 0  25 01111010000110001010010 0
2.912747e-31 0  25 01111010000110001010001 carry(z) over(z) under(z)

x1 = 1 01101100 11011111000110110110100, 108
11001000 10001000 00111001 00100110
11001000 10001000 11001001 00010100
11001000 10001000 11001001 10101110
11001000 10001000 11001001 10101101
11001000 11001101 00101110 10000100
11001000 01001101 00101110 10000100
-2.801414e+05 1 145 00010001100100110101101 0
-2.101061e+05 1 144 10011010010111010000100 carry(z) over(z) under(z)

x1 = 0 11001011 01110110101101001001000, 203
00011001 00100010 01010010 11011100
00011001 00101101 11111110 11101011
00011001 00101110 11100101 00111011
00011001 00101110 11100110 01101101
00011001 10000011 00101100 11010010
00011001 00000011 00101100 11010010
9.042123e-24 0  50 01011101110011001101101 0
6.781593e-24 0  50 00000110010110011010010 carry(z) over(z) under(z)

x1 = 0 01001011 01100001101000000011011,  75
01011001 00100111 10010111 11110010
01011001 00110111 10100001 00010001
01011001 00111001 01001111 01110000
01011001 00111001 01010011 01101010
01011001 00111001 01010011 01101010
01011001 00111001 01010011 01101010
3.260287e+15 0 178 01110010101001101101010 0
3.260287e+15 0 178 01110010101001101101010 carry(z) over(z) under(z)

x1 = 0 10111010 00001111100011101000100, 186
00100001 10111100 00011100 01011110
00100001 11100101 10011000 10111000
00100001 11110000 11000011 01110111
00100001 11110001 01010101 01000101
00100001 11110001 01010101 10011110
00100010 00110101 00000000 00110110
1.635346e-18 0  67 11100010101010110011110 0
2.453019e-18 0  68 01101010000000000110110 carry(z) over(z) under(z)

x1 = 0 11101111 10000101011000100000100, 239
00000111 00011110 10100111 01111110
00000111 00100111 11000000 11110001
00000111 00101000 01001110 00110101
00000111 00101000 01001110 10101101
00000111 00101000 01001110 10101101
00000111 00101000 01001110 10101101
1.266204e-34 0  14 01010000100111010101101 0
1.266204e-34 0  14 01010000100111010101101 carry(z) over(z) under(z)

x1 = 1 00101011 01011101101001011110001,  43
11101001 00101000 10010110 10001000
11101001 00111001 10001010 00001111
11101001 00111011 01101010 01000010
11101001 00111011 01101111 00101010
11101001 00111011 01101111 00101010
11101001 00111011 01101111 00101010
-1.416213e+25 1 210 01110110110111100101010 0
-1.416213e+25 1 210 01110110110111100101010 carry(z) over(z) under(z)

x1 = 0 10011110 01101010001110000100011, 158
00101111 10100101 01110001 11101110
00101111 10110011 10011010 10001110
00101111 10110100 11101011 01001010
00101111 10110100 11101101 11000110
00101111 10110100 11101101 11000110
00101111 10110100 11101101 11000110
3.291076e-10 0  95 01101001110110111000110 0
3.291076e-10 0  95 01101001110110111000110 carry(z) over(z) under(z)

x1 = 1 01011100 01100100011111010111000,  92
11010000 10100110 11100000 10100100
11010000 10110110 01000101 10110111
11010000 10110111 11010010 11010100
11010000 10110111 11010110 00111101
11010000 10110111 11010110 00111101
11010000 10110111 11010110 00111101
-2.467417e+10 1 161 01101111101011000111100 0
-2.467417e+10 1 161 01101111101011000111101 carry(z) over(z) under(z)

x1 = 0 11110110 11010100010110100111001, 246
00000011 10001010 11101001 01100100
00000011 10001011 11101011 11010001
00000011 10001011 11101101 10110110
00000011 10001011 11101101 10110110
00000011 10001011 11101101 10110110
00000011 10001011 11101101 10110110
8.224261e-37 0   7 00010111110110110110110 0
8.224261e-37 0   7 00010111110110110110110 carry(z) over(z) under(z)

x1 = 0 11101001 11001011110110000111111, 233
00001010 00001101 00001001 11100000
00001010 00001110 10000000 10000110
00001010 00001110 10000100 01110010
00001010 00001110 10000100 01110011
00001010 00001110 10000100 01110011
00001010 00001110 10000100 01110011
6.861962e-33 0  20 00011101000010001110011 0
6.861962e-33 0  20 00011101000010001110011 carry(z) over(z) under(z)

x1 = 0 00010110 01110100000010111111100,  22
01110011 10100010 11111101 00000010
01110011 10101111 00101010 10011111
01110011 10110000 00100100 11111000
01110011 10110000 00100110 01100001
01110011 10110000 00100110 01100000
01110100 00000100 00011100 11001000
2.791207e+31 0 231 01100000010011001100000 0
4.186810e+31 0 232 00001000001110011001000 carry(z) over(z) under(z)

x1 = 0 11100110 01011001101111000111101, 230
00001011 10101001 10010000 11100010
00001011 10111011 01110010 01110000
00001011 10111101 10001000 00001110
00001011 10111101 10001110 00001111
00001011 10111101 10001110 00001111
00001011 10111101 10001110 00001111
7.301389e-32 0  23 01111011000111000001110 0
7.301390e-32 0  23 01111011000111000001111 carry(z) over(z) under(z)

x1 = 1 00010101 00101001011111100110000,  21
11110100 00110101 10100000 01101000
11110100 01010101 10000001 10110111
11110100 01011100 00010101 10101100
11110100 01011100 01001011 00101000
11110100 01011100 01001011 00110110
11110100 01011100 01001011 00110100
-6.981388e+31 1 232 10111000100101100110101 0
-6.981388e+31 1 232 10111000100101100110100 carry(z) over(z) under(z)

x1 = 0 10110100 11011110010001000100000, 180
00100100 10001000 01101110 11110000
00100100 10001001 00000110 10001101
00100100 10001001 00000111 00110110
00100100 10001001 00000111 00110110
00100100 10001001 00000111 00110110
00100100 10001001 00000111 00110110
5.942650e-17 0  73 00010010000011100110111 0
5.942649e-17 0  73 00010010000011100110110 carry(z) over(z) under(z)

x1 = 1 01000010 10111110001110011110101,  66
11011101 10010000 01110001 10000110
11011101 10010010 11010011 11000100
11011101 10010010 11011110 00000000
11011101 10010010 11011110 00000001
11011101 10010010 11011110 00000001
11011101 10010010 11011110 00000001
-1.322862e+18 1 187 00100101101111000000001 0
-1.322862e+18 1 187 00100101101111000000001 carry(z) over(z) under(z)

x1 = 1 00001011 11111101110110001101001,  11
11111001 00000000 10001001 11001100
11111001 00000000 10001010 01100001
11111001 00000000 10001010 01100000
11111001 00000000 10001010 01100000
11111001 00000000 10001010 01100000
11111001 00000000 10001010 01100000
-4.171379e+34 1 242 00000001000101001100000 0
-4.171379e+34 1 242 00000001000101001100000 carry(z) over(z) under(z)

x1 = 0 10011110 10101010000111001011111, 158
00101111 10010101 01111000 11010000
00101111 10011001 10101101 10010101
00101111 10011001 11001100 10111011
00101111 10011001 11001100 11000010
00101111 10011001 11001100 11000010
00101111 10011001 11001100 11000010
2.797603e-10 0  95 00110011100110011000010 0
2.797603e-10 0  95 00110011100110011000010 carry(z) over(z) under(z)

x1 = 0 01011001 00110010010001011110001,  89
01010010 00110011 01101110 10001000
01010010 01010000 01100110 10111101
01010010 01010101 11010101 01101010
01010010 01010101 11111010 10011100
01010010 01010101 11111010 10100011
01010010 01010101 11111010 10100011
2.297583e+11 0 164 10101011111101010100011 0
2.297583e+11 0 164 10101011111101010100011 carry(z) over(z) under(z)

x1 = 0 11110010 01010111100101010100110, 242
00000101 10101010 00011010 10101101
00000101 10111100 10000010 01110111
00000101 10111110 10110111 01110100
00000101 10111110 10111110 00100100
00000110 00001111 00001110 10011011
00000101 10001111 00001110 10011011
1.793736e-35 0  11 01111101011111000100100 0
1.345302e-35 0  11 00011110000111010011011 carry(z) over(z) under(z)

x1 = 0 10110011 11010011100110110001111, 179
00100101 00001011 00011001 00111000
00100101 00001100 00100100 11101111
00100101 00001100 00100110 11110110
00100101 00001100 00100110 11110110
00100101 00001100 00100110 11110110
00100101 00001100 00100110 11110110
1.215627e-16 0  74 00011000010011011110111 0
1.215626e-16 0  74 00011000010011011110110 carry(z) over(z) under(z)

x1 = 0 00001110 00010000100010100010001,  14
01110111 10111011 11011101 01111000
01110111 11100100 11110101 01101011
01110111 11101111 11101001 11100101
01110111 11110000 01110110 10000000
01110111 11110000 01110110 11010011
01110111 11110000 01110110 11010011
9.754385e+33 0 239 11100000111011011010011 0
9.754385e+33 0 239 11100000111011011010011 carry(z) over(z) under(z)

x1 = 1 00110101 00010101110011110011011,  53
11100100 00111010 10001100 00110010
11100100 01100001 10010011 10100111
11100100 01101011 01110011 01100011
11100100 01101011 11100110 11100001
11100100 01101011 11100111 00011000
11100100 01101011 11100111 00011000
-1.740655e+22 1 200 11010111110011100011001 0
-1.740655e+22 1 200 11010111110011100011000 carry(z) over(z) under(z)

x1 = 0 10111111 11010001011100111111000, 191
00011111 00001011 10100011 00000100
00011111 00001100 11001010 01110111
00011111 00001100 11001100 11101110
00011111 00001100 11001100 11101110
00011111 00001100 11001100 11101110
00011111 00001100 11001100 11101110
2.981567e-20 0  62 00011001100110011101110 0
2.981567e-20 0  62 00011001100110011101110 carry(z) over(z) under(z)

x1 = 0 10101100 10111010101001101110000, 172
00101000 10010001 01010110 01001000
00101000 10010100 00000000 11011010
00101000 10010100 00001101 10011010
00101000 10010100 00001101 10011011
00101000 11011110 00010100 01101000
00101000 01011110 00010100 01101000
1.643720e-14 0  81 00101000000110110011011 0
1.232790e-14 0  80 10111100001010001101000 carry(z) over(z) under(z)

x1 = 0 10001110 01001000000101010001100, 142
00110111 10101101 11111010 10111010
00110111 11000100 01101101 11000101
00110111 11000111 10110011 00000111
00110111 11000111 11000001 00110100
