xsim_120.backup.log
#-----------------------------------------------------------
# xsim v2018.3 (64-bit)
# SW Build 2405991 on Thu Dec  6 23:38:27 MST 2018
# IP Build 2404404 on Fri Dec  7 01:43:56 MST 2018
# Start of session at: Mon Nov  4 07:27:14 2019
# Process ID: 120
# Current directory: C:/Users/tkodera/Desktop/CPU/Fpu
# Command line: xsim.exe -mode tcl -source {xsim.dir/finv_testbench.sim/xsim_script.tcl}
# Log file: C:/Users/tkodera/Desktop/CPU/Fpu/xsim.log
# Journal file: C:/Users/tkodera/Desktop/CPU/Fpu\xsim.jou
#-----------------------------------------------------------
source xsim.dir/finv_testbench.sim/xsim_script.tcl
# xsim {finv_testbench.sim} -autoloadwcfg -runall
Vivado Simulator 2018.3
Time resolution is 100 ps
run -all
start of checking module fadd
difference message format
x2 = [input 2(bit)], [exponent 2(decimal)]
ref. : result(float) sign(bit),exponent(decimal),mantissa(bit) overflow(bit)
finv : result(float) sign(bit),exponent(decimal),mantissa(bit) overflow(bit)
x2 = 1 00001101 00111100100101011110010,  13
00000000 00000000 00000000 00000000 11001111 00000000 00000000 00000000
00000000 00000000 00000000 00000001 10011110 00000000 00000000 00000000
00000000 00000000 00000000 00000000 11111111 11111101 00110011 01011100
00000000 00000000 00000000 00000000 11001110 11111101 10111100 10000111
00000000 00000000 00000000 00000000 11001111 00000010 01000011 01111001
00000000 00000000 00000000 00000001 10011110 00000100 10000110 11110010
00000000 00000000 00000000 00000000 11111111 11111111 11111111 11111000
00000000 00000000 00000000 00000000 11001110 11111101 10111100 10000111
00000000 00000000 00000000 00000000 11001111 00000010 01000011 10000000
-1.679455e+34 1,240,10011110000001001000011 0
-1.679455e+34 1,240,10011110000001001000100 z

x2 = 0 00110011 00100010001111011000000,  51
00000000 00000000 00000000 00000000 11100001 10000000 00000000 00000000
00000000 00000000 00000000 00000001 11000011 00000000 00000000 00000000
00000000 00000000 00000000 00000000 11111111 10101001 00101100 01000000
00000000 00000000 00000000 00000000 11100001 00110011 10000100 01111010
00000000 00000000 00000000 00000000 11100001 11001100 01111011 10000110
00000000 00000000 00000000 00000001 11000011 10011000 11110111 00001100
00000000 00000000 00000000 00000000 11111111 11111111 11100010 10001101
00000000 00000000 00000000 00000000 11100001 00110011 10000100 01111010
00000000 00000000 00000000 00000000 11100001 11001100 10010101 10000000
6.664415e+22 0,202,11000011100110010010101 0
6.664415e+22 0,202,11000011100110010010110 z

x2 = 0 01010010 01001010110010110010111,  82
00000000 00000000 00000000 00000000 11000110 10000000 00000000 00000000
00000000 00000000 00000000 00000001 10001101 00000000 00000000 00000000
00000000 00000000 00000000 00000001 00000000 01111110 10001011 00101011
00000000 00000000 00000000 00000000 11000110 11100010 00011110 11101000
00000000 00000000 00000000 00000000 11000110 00011101 11100001 00011000
00000000 00000000 00000000 00000001 10001100 00111011 11000010 00110000
00000000 00000000 00000000 00000000 11111111 11111111 11000001 01110011
00000000 00000000 00000000 00000000 11000110 11100010 00011110 11101000
00000000 00000000 00000000 00000000 11000110 00011110 00010001 10000001
2.722906e+13 0,171,10001100001111000010001 0
2.722906e+13 0,171,10001100001111000010010 z

x2 = 1 11001001 01010001000111100000010, 201
00000000 00000000 00000000 00000000 11000010 00000000 00000000 00000000
00000000 00000000 00000000 00000001 10000100 00000000 00000000 00000000
00000000 00000000 00000000 00000000 11111111 01111000 10111111 00001000
00000000 00000000 00000000 00000000 11000001 10011001 10000000 11000100
00000000 00000000 00000000 00000000 11000010 01100110 01111111 00111100
00000000 00000000 00000000 00000001 10000100 11001100 11111110 01111000
00000000 00000000 00000000 00000000 11111111 11111111 10111000 10001010
00000000 00000000 00000000 00000000 11000001 10011001 10000000 11000100
00000000 00000000 00000000 00000000 11000010 01100110 10110101 10000001
-4.020123e-23 1, 52,10000100110011010110101 0
-4.020123e-23 1, 52,10000100110011010110110 z

x2 = 0 11001101 00111100110100101110001, 205
00000000 00000000 00000000 00000000 11001111 00000000 00000000 00000000
00000000 00000000 00000000 00000001 10011110 00000000 00000000 00000000
00000000 00000000 00000000 00000001 00000000 00101110 10000100 10111110
00000000 00000000 00000000 00000000 11001111 00100101 10011101 01010101
00000000 00000000 00000000 00000000 11001110 11011010 01100010 10101011
00000000 00000000 00000000 00000001 10011101 10110100 11000101 01010110
00000000 00000000 00000000 00000000 11111111 11111111 11110111 10001100
00000000 00000000 00000000 00000000 11001111 00100101 10011101 01010101
00000000 00000000 00000000 00000000 11001110 11011010 01101001 10000000
2.673515e-24 0, 48,10011101101101001101001 0
2.673515e-24 0, 48,10011101101101001101010 z

x2 = 0 11111101 10111111111111111111111, 253
00000000 00000000 00000000 00000000 10010010 10000000 00000000 00000000
00000000 00000000 00000000 00000001 00100101 00000000 00000000 00000000
00000000 00000000 00000000 00000001 00000000 01011111 11111110 11011011
00000000 00000000 00000000 00000000 10010010 10110110 11101111 01011000
00000000 00000000 00000000 00000000 10010010 01001001 00010000 10101000
00000000 00000000 00000000 00000001 00100100 10010010 00100001 01010000
00000000 00000000 00000000 00000000 11111111 11111111 11011100 00000001
00000000 00000000 00000000 00000000 10010010 10110110 11101111 01011000
00000000 00000000 00000000 00000000 10010010 01001001 00100101 00111010
6.717111e-39 0,  0,10010010010010010010011 0
6.717110e-39 0,  0,10010010010010010010010 z

x2 = 0 11111101 01000110000101010000010, 253
00000000 00000000 00000000 00000000 11001001 00000000 00000000 00000000
00000000 00000000 00000000 00000001 10010010 00000000 00000000 00000000
00000000 00000000 00000000 00000001 00000000 00000110 10000000 00100100
00000000 00000000 00000000 00000000 11001001 00000101 00011010 10011100
00000000 00000000 00000000 00000000 11001000 11111010 11100101 01100100
00000000 00000000 00000000 00000001 10010001 11110101 11001010 11001000
00000000 00000000 00000000 00000000 11111111 11111111 11111111 11010110
00000000 00000000 00000000 00000000 11001001 00000101 00011010 10011100
00000000 00000000 00000000 00000000 11001000 11111010 11100101 10000101
9.228552e-39 0,  0,11001000111110101110011 0
9.228551e-39 0,  0,11001000111110101110010 z

x2 = 1 11111101 10111111111111111111111, 253
00000000 00000000 00000000 00000000 10010010 10000000 00000000 00000000
00000000 00000000 00000000 00000001 00100101 00000000 00000000 00000000
00000000 00000000 00000000 00000001 00000000 01011111 11111110 11011011
00000000 00000000 00000000 00000000 10010010 10110110 11101111 01011000
00000000 00000000 00000000 00000000 10010010 01001001 00010000 10101000
00000000 00000000 00000000 00000001 00100100 10010010 00100001 01010000
00000000 00000000 00000000 00000000 11111111 11111111 11011100 00000001
00000000 00000000 00000000 00000000 10010010 10110110 11101111 01011000
00000000 00000000 00000000 00000000 10010010 01001001 00100101 00111010
-6.717111e-39 1,  0,10010010010010010010011 0
-6.717110e-39 1,  0,10010010010010010010010 z

x2 = 1 11111101 00101011101100011111101, 253
00000000 00000000 00000000 00000000 11011011 00000000 00000000 00000000
00000000 00000000 00000000 00000001 10110110 00000000 00000000 00000000
00000000 00000000 00000000 00000001 00000000 01100001 01000000 11011110
00000000 00000000 00000000 00000000 11011011 01010011 00110010 01111101
00000000 00000000 00000000 00000000 11011010 10101100 11001101 10000011
00000000 00000000 00000000 00000001 10110101 01011001 10011011 00000110
00000000 00000000 00000000 00000000 11111111 11111111 11011011 00001110
00000000 00000000 00000000 00000000 11011011 01010011 00110010 01111101
00000000 00000000 00000000 00000000 11011010 10101100 11101101 00010011
-1.004109e-38 1,  0,11011010101011001110111 0
-1.004109e-38 1,  0,11011010101011001110110 z

x2 = 1 11111101 00100111000000010101110, 253
00000000 00000000 00000000 00000000 11011110 00000000 00000000 00000000
00000000 00000000 00000000 00000001 10111100 00000000 00000000 00000000
00000000 00000000 00000000 00000000 11111111 11010011 00101101 11001000
00000000 00000000 00000000 00000000 11011101 11011001 00100001 10110011
00000000 00000000 00000000 00000000 11011110 00100110 11011110 01001101
00000000 00000000 00000000 00000001 10111100 01001101 10111100 10011010
00000000 00000000 00000000 00000000 11111111 11111111 11111000 00100111
00000000 00000000 00000000 00000000 11011101 11011001 00100001 10110011
00000000 00000000 00000000 00000000 11011110 00100110 11100101 00011101
-1.020072e-38 1,  0,11011110001001101110011 0
-1.020072e-38 1,  0,11011110001001101110010 z

x2 = 0 11111110 00000000000000000000001, 254
00000000 00000000 00000000 00000000 11111111 10000000 00000000 00000000
00000000 00000000 00000000 00000001 11111111 00000000 00000000 00000000
00000000 00000000 00000000 00000000 11111111 10000000 00000001 11111111
00000000 00000000 00000000 00000000 11111111 00000000 01000001 11111110
00000000 00000000 00000000 00000000 11111111 11111111 10111110 00000010
00000000 00000000 00000000 00000001 11111111 11111111 01111100 00000100
00000000 00000000 00000000 00000000 11111111 11111111 11000000 00000001
00000000 00000000 00000000 00000000 11111111 00000000 01000001 11111110
00000000 00000000 00000000 00000000 11111111 11111111 11111110 00000001
5.877471e-39 0,  0,10000000000000000000000 0
5.877470e-39 0,  0,01111111111111111111111 z

x2 = 0 11111110 01110000000000000000000, 254
00000000 00000000 00000000 00000000 10110010 00000000 00000000 00000000
00000000 00000000 00000000 00000001 01100100 00000000 00000000 00000000
00000000 00000000 00000000 00000000 11111111 11100000 00000000 00000000
00000000 00000000 00000000 00000000 10110001 11101001 11000000 00000000
00000000 00000000 00000000 00000000 10110010 00010110 01000000 00000000
00000000 00000000 00000000 00000001 01100100 00101100 10000000 00000000
00000000 00000000 00000000 00000000 11111111 11111111 11111100 00000000
00000000 00000000 00000000 00000000 10110001 11101001 11000000 00000000
00000000 00000000 00000000 00000000 10110010 00010110 01000010 11001001
4.088676e-39 0,  0,01011001000010110010001 0
4.088675e-39 0,  0,01011001000010110010000 z

x2 = 0 11111110 10000000000000000000000, 254
00000000 00000000 00000000 00000000 10101010 10000000 00000000 00000000
00000000 00000000 00000000 00000001 01010101 00000000 00000000 00000000
00000000 00000000 00000000 00000000 11111111 11000000 00000000 00000000
00000000 00000000 00000000 00000000 10101010 01010101 01100000 00000000
00000000 00000000 00000000 00000000 10101010 10101010 10100000 00000000
00000000 00000000 00000000 00000001 01010101 01010101 01000000 00000000
00000000 00000000 00000000 00000000 11111111 11111111 11110000 00000000
00000000 00000000 00000000 00000000 10101010 01010101 01100000 00000000
00000000 00000000 00000000 00000000 10101010 10101010 10101010 10101011
3.918315e-39 0,  0,01010101010101010101011 0
3.918314e-39 0,  0,01010101010101010101010 z

x2 = 0 11111110 00101111110011011000011, 254
00000000 00000000 00000000 00000000 11011000 00000000 00000000 00000000
00000000 00000000 00000000 00000001 10110000 00000000 00000000 00000000
00000000 00000000 00000000 00000001 00000000 01010101 01101001 00010000
00000000 00000000 00000000 00000000 11011000 01001000 00010000 10100101
00000000 00000000 00000000 00000000 11010111 10110111 11101111 01011011
00000000 00000000 00000000 00000001 10101111 01101111 11011110 10110110
00000000 00000000 00000000 00000000 11111111 11111111 11100011 10000001
00000000 00000000 00000000 00000000 11011000 01001000 00010000 10100101
00000000 00000000 00000000 00000000 11010111 10111000 00000111 01011111
4.952662e-39 0,  0,01101011110111000000010 0
4.952661e-39 0,  0,01101011110111000000001 z

x2 = 0 11111110 00000000011010100001100, 254
00000000 00000000 00000000 00000000 11111111 10000000 00000000 00000000
00000000 00000000 00000000 00000001 11111111 00000000 00000000 00000000
00000000 00000000 00000000 00000000 11111111 11101001 11100010 11110100
00000000 00000000 00000000 00000000 11111111 01101001 11101110 00000010
00000000 00000000 00000000 00000000 11111111 10010110 00010001 11111110
00000000 00000000 00000000 00000001 11111111 00101100 00100011 11111100
00000000 00000000 00000000 00000000 11111111 11111111 11111110 00010111
00000000 00000000 00000000 00000000 11111111 01101001 11101110 00000010
00000000 00000000 00000000 00000000 11111111 10010110 00010011 11100111
5.867972e-39 0,  0,01111111110010110000101 0
5.867971e-39 0,  0,01111111110010110000100 z

x2 = 1 11111110 00000000000000000000001, 254
00000000 00000000 00000000 00000000 11111111 10000000 00000000 00000000
00000000 00000000 00000000 00000001 11111111 00000000 00000000 00000000
00000000 00000000 00000000 00000000 11111111 10000000 00000001 11111111
00000000 00000000 00000000 00000000 11111111 00000000 01000001 11111110
00000000 00000000 00000000 00000000 11111111 11111111 10111110 00000010
00000000 00000000 00000000 00000001 11111111 11111111 01111100 00000100
00000000 00000000 00000000 00000000 11111111 11111111 11000000 00000001
00000000 00000000 00000000 00000000 11111111 00000000 01000001 11111110
00000000 00000000 00000000 00000000 11111111 11111111 11111110 00000001
-5.877471e-39 1,  0,10000000000000000000000 0
-5.877470e-39 1,  0,01111111111111111111111 z

x2 = 1 11111110 01110000000000000000000, 254
00000000 00000000 00000000 00000000 10110010 00000000 00000000 00000000
00000000 00000000 00000000 00000001 01100100 00000000 00000000 00000000
00000000 00000000 00000000 00000000 11111111 11100000 00000000 00000000
00000000 00000000 00000000 00000000 10110001 11101001 11000000 00000000
00000000 00000000 00000000 00000000 10110010 00010110 01000000 00000000
00000000 00000000 00000000 00000001 01100100 00101100 10000000 00000000
00000000 00000000 00000000 00000000 11111111 11111111 11111100 00000000
00000000 00000000 00000000 00000000 10110001 11101001 11000000 00000000
00000000 00000000 00000000 00000000 10110010 00010110 01000010 11001001
-4.088676e-39 1,  0,01011001000010110010001 0
-4.088675e-39 1,  0,01011001000010110010000 z

x2 = 1 11111110 10000000000000000000000, 254
00000000 00000000 00000000 00000000 10101010 10000000 00000000 00000000
00000000 00000000 00000000 00000001 01010101 00000000 00000000 00000000
00000000 00000000 00000000 00000000 11111111 11000000 00000000 00000000
00000000 00000000 00000000 00000000 10101010 01010101 01100000 00000000
00000000 00000000 00000000 00000000 10101010 10101010 10100000 00000000
00000000 00000000 00000000 00000001 01010101 01010101 01000000 00000000
00000000 00000000 00000000 00000000 11111111 11111111 11110000 00000000
00000000 00000000 00000000 00000000 10101010 01010101 01100000 00000000
00000000 00000000 00000000 00000000 10101010 10101010 10101010 10101011
-3.918315e-39 1,  0,01010101010101010101011 0
-3.918314e-39 1,  0,01010101010101010101010 z

x2 = 1 11111110 00000101000101111001101, 254
00000000 00000000 00000000 00000000 11111011 00000000 00000000 00000000
00000000 00000000 00000000 00000001 11110110 00000000 00000000 00000000
00000000 00000000 00000000 00000000 11111111 11111110 00100011 11111110
00000000 00000000 00000000 00000000 11111010 11111110 00101101 01001010
00000000 00000000 00000000 00000000 11111011 00000001 11010010 10110110
00000000 00000000 00000000 00000001 11110110 00000011 10100101 01101100
00000000 00000000 00000000 00000000 11111111 11111111 11111111 11111100
00000000 00000000 00000000 00000000 11111010 11111110 00101101 01001010
00000000 00000000 00000000 00000000 11111011 00000001 11010010 10111010
-5.762841e-39 1,  0,01111101100000001110101 0
-5.762840e-39 1,  0,01111101100000001110100 z

x2 = 1 11111110 00101100000111000001001, 254
00000000 00000000 00000000 00000000 11011010 00000000 00000000 00000000
00000000 00000000 00000000 00000001 10110100 00000000 00000000 00000000
00000000 00000000 00000000 00000000 11111111 10001111 11100111 01010100
00000000 00000000 00000000 00000000 11011001 10100000 10001010 11111101
00000000 00000000 00000000 00000000 11011010 01011111 01110101 00000011
00000000 00000000 00000000 00000001 10110100 10111110 11101010 00000110
00000000 00000000 00000000 00000000 11111111 11111111 11001110 11101011
00000000 00000000 00000000 00000000 11011001 10100000 10001010 11111101
00000000 00000000 00000000 00000000 11011010 01011111 10011110 11100010
-5.013610e-39 1,  0,01101101001011111101000 0
-5.013609e-39 1,  0,01101101001011111100111 z

x2 = 1 11111110 00111101000111111110001, 254
00000000 00000000 00000000 00000000 11001110 10000000 00000000 00000000
00000000 00000000 00000000 00000001 10011101 00000000 00000000 00000000
00000000 00000000 00000000 00000000 11111111 11001110 00110111 11001101
00000000 00000000 00000000 00000000 11001110 01010111 11011000 00000010
00000000 00000000 00000000 00000000 11001110 10101000 00100111 11111110
00000000 00000000 00000000 00000001 10011101 01010000 01001111 11111100
00000000 00000000 00000000 00000000 11111111 11111111 11110110 01010010
00000000 00000000 00000000 00000000 11001110 01010111 11011000 00000010
00000000 00000000 00000000 00000000 11001110 10101000 00101111 11001111
-4.744612e-39 1,  0,01100111010101000001100 0
-4.744610e-39 1,  0,01100111010101000001011 z

end of checking module finv
$finish called at time : 10160 ns : File "C:/Users/tkodera/Desktop/CPU/Fpu/finv_testbench_takt.sv" Line 143
exit
INFO: [Common 17-206] Exiting xsim at Mon Nov  4 07:27:16 2019...
